<svg width="27" height="27" viewBox="0 0 27 27" fill="none" xmlns="http://www.w3.org/2000/svg">
<path d="M7.00098 6.99905L19.894 19.8921" stroke="#7B7B7B" stroke-width="3" stroke-linecap="round" stroke-linejoin="round"/>
<path d="M6.99957 19.8921L19.8926 6.99905" stroke="#7B7B7B" stroke-width="3" stroke-linecap="round" stroke-linejoin="round"/>
</svg>
