<svg width="22" height="26" viewBox="0 0 22 26" fill="none" xmlns="http://www.w3.org/2000/svg">
<path d="M21.883 9.37492C22.0574 10.1873 22.0357 11.1728 21.8254 12.3344C20.987 16.6315 18.257 18.7787 13.6384 18.7787H13.0017C12.7664 18.7772 12.5387 18.8625 12.362 19.0182C12.179 19.177 12.0572 19.395 12.0177 19.6343L11.9587 19.9071L11.162 24.9271L11.1318 25.145C11.0906 25.386 10.9643 25.6042 10.7759 25.7597C10.5981 25.9164 10.3688 26.0017 10.132 25.9992H6.49731C6.40634 26.004 6.31555 25.9868 6.23257 25.9492C6.14959 25.9115 6.07685 25.8544 6.02047 25.7828C5.96321 25.7096 5.92205 25.625 5.8997 25.5348C5.87736 25.4445 5.87433 25.3505 5.89082 25.259C5.9787 24.7208 6.10403 23.9055 6.27546 22.8218C6.44401 21.7396 6.57223 20.9258 6.6601 20.3847C6.74798 19.8436 6.8762 19.0312 7.05195 17.9533C7.22626 16.874 7.35736 16.063 7.44236 15.5219C7.4899 15.1641 7.70023 14.9866 8.06614 14.9866H9.96198C11.2485 15.0053 12.3851 14.9043 13.3834 14.6821C15.0718 14.3041 16.4577 13.6086 17.541 12.5913C18.5279 11.6721 19.2741 10.4817 19.7884 9.02284C20.0218 8.34466 20.1874 7.69965 20.2955 7.09217C20.3041 7.03301 20.3157 6.99693 20.3315 6.98539C20.343 6.96952 20.3632 6.96519 20.3819 6.96952C20.4132 6.9835 20.4431 7.00041 20.4712 7.02002C21.2261 7.59432 21.7015 8.37784 21.883 9.37492ZM19.3937 5.2827C19.3937 6.3173 19.1718 7.45868 18.7238 8.70828C17.9502 10.9622 16.4952 12.4859 14.3486 13.2796C13.2567 13.6677 12.0408 13.8683 10.6967 13.8928C10.6967 13.9015 10.2631 13.9029 9.39438 13.9029L8.09351 13.8928C7.12542 13.8928 6.55638 14.3546 6.38351 15.2838C6.36478 15.3603 5.95421 17.9244 5.15178 22.9733C5.14026 23.0686 5.08263 23.1205 4.97747 23.1205H0.706059C0.605395 23.1226 0.505512 23.1024 0.413596 23.0612C0.32168 23.02 0.240015 22.959 0.174474 22.8824C0.106469 22.8071 0.0562665 22.7174 0.0275874 22.62C-0.00109175 22.5226 -0.00751215 22.4199 0.00880311 22.3197L3.36831 0.971153C3.41134 0.697966 3.55278 0.45003 3.76592 0.274206C3.97372 0.095057 4.23943 -0.00237345 4.51359 4.39267e-05H13.1774C13.5059 4.39267e-05 13.977 0.063534 14.5878 0.189071C15.2044 0.310279 15.7417 0.469005 16.2056 0.65226C17.24 1.04763 18.0294 1.64501 18.5754 2.4372C19.1214 3.23371 19.3937 4.17884 19.3937 5.2827Z" fill="#D0D0D0"/>
</svg>
